module custodian/gateway/reverse-proxy

go 1.20

require (
	github.com/google/uuid v1.3.1
	github.com/gorilla/securecookie v1.1.1
	github.com/labstack/echo/v4 v4.11.1
	github.com/sirupsen/logrus v1.9.3
	github.com/spf13/viper v1.16.0
	github.com/zitadel/oidc/v2 v2.11.0
)

require (
	github.com/fsnotify/fsnotify v1.6.0 // indirect
	github.com/golang-jwt/jwt v3.2.2+incompatible // indirect
	github.com/golang/protobuf v1.5.3 // indirect
	github.com/gorilla/schema v1.2.0 // indirect
	github.com/hashicorp/hcl v1.0.0 // indirect
	github.com/labstack/gommon v0.4.0 // indirect
	github.com/magiconair/properties v1.8.7 // indirect
	github.com/mattn/go-colorable v0.1.13 // indirect
	github.com/mattn/go-isatty v0.0.19 // indirect
	github.com/mitchellh/mapstructure v1.5.0 // indirect
	github.com/muhlemmer/gu v0.3.1 // indirect
	github.com/pelletier/go-toml/v2 v2.0.8 // indirect
	github.com/spf13/afero v1.9.5 // indirect
	github.com/spf13/cast v1.5.1 // indirect
	github.com/spf13/jwalterweatherman v1.1.0 // indirect
	github.com/spf13/pflag v1.0.5 // indirect
	github.com/subosito/gotenv v1.4.2 // indirect
	github.com/valyala/bytebufferpool v1.0.0 // indirect
	github.com/valyala/fasttemplate v1.2.2 // indirect
	golang.org/x/crypto v0.13.0 // indirect
	golang.org/x/net v0.15.0 // indirect
	golang.org/x/oauth2 v0.12.0 // indirect
	golang.org/x/sys v0.12.0 // indirect
	golang.org/x/text v0.13.0 // indirect
	golang.org/x/time v0.3.0 // indirect
	google.golang.org/appengine v1.6.7 // indirect
	google.golang.org/protobuf v1.31.0 // indirect
	gopkg.in/ini.v1 v1.67.0 // indirect
	gopkg.in/square/go-jose.v2 v2.6.0 // indirect
	gopkg.in/yaml.v3 v3.0.1 // indirect
)
